{
    "name": "org-template",
    "data": [
        {
            "id": "org-template-builder",
            "text": "Org-template-builder"
        },
        {
            "id": "template-builder-arguments",
            "text": "Template Builder Arguments"
        },
        {
            "id": "project-name",
            "text": "Project Name"
        },
        {
            "id": "author-name",
            "text": "Author Name"
        },
        {
            "id": "introduction",
            "text": "Introduction"
        },
        {
            "id": "folder-structure",
            "text": "Folder Structure"
        },
        {
            "id": "dependencies",
            "text": "Dependencies"
        },
        {
            "id": "default-theme-and-modules",
            "text": "Default theme and modules"
        },
        {
            "id": "running-from-a-parent-project",
            "text": "Running from a parent project"
        },
        {
            "id": "code-examples",
            "text": "Code Examples"
        },
        {
            "id": "shell-example",
            "text": "Shell Example"
        },
        {
            "id": "sql-example",
            "text": "SQL Example"
        },
        {
            "id": "elisp-example",
            "text": "Elisp Example"
        },
        {
            "id": "python-example",
            "text": "Python Example"
        },
        {
            "id": "to-do",
            "text": "To Do"
        },
        {
            "id": "org914fa22",
            "text": "TODO Fix the README file in the project root."
        },
        {
            "id": "admonitions",
            "text": "Admonitions"
        },
        {
            "id": "src-installation",
            "text": "\ninstallation\n\n\nshell\n\npip install org-template-builder\n\n"
        },
        {
            "id": "src-org-template-builder-2",
            "text": "\norg-template-builder-2\n\n\nshell\n\npython -m orgtemp myprojectname --author myname\n\n"
        },
        {
            "id": "src-org-template-builder-3",
            "text": "\norg-template-builder-3\n\n\nshell\n\nmkdir myprojectname && cd myprojectname && python -m orgtemp myprojectname\n\n"
        },
        {
            "id": "src-introduction-1",
            "text": "\nintroduction-1\n\n\nshell\n\nmake update\n\n"
        },
        {
            "id": "src-introduction-2",
            "text": "\nintroduction-2\n\n\nshell\n\nmake\n\n"
        },
        {
            "id": "src-introduction-3",
            "text": "\nintroduction-3\n\n\nshell\n\nmake clean\n\n"
        },
        {
            "id": "src-folder-structure-1",
            "text": "\nfolder-structure-1\n\n\nshell\n\ntree .. -I 'venv|orgtemp' -d\n\n"
        },
        {
            "id": "src-static_files_f",
            "text": "\nstatic_files_f\n\n\nelisp\n\n\"ico\\\\|png\\\\|jpg\\\\|jpeg\\\\|gif\\\\|svg\\\\|html\\\\|css\\\\|js\\\\|txt\"\n\n"
        },
        {
            "id": "src-default-theme-and-mo-1",
            "text": "\ndefault-theme-and-mo-1\n\n\norg\n\n#+SETUPFILE: ../config/org-theme-alt.config\n\n"
        },
        {
            "id": "src-default-theme-and-mo-2",
            "text": "\ndefault-theme-and-mo-2\n\n\nshell\n\ngit rm resources/theme\ngit commit \"removed default theme\"\n\n"
        },
        {
            "id": "src-shell-example-1",
            "text": "\nshell-example-1\n\n\nshell\n\npyenv local 3.7.13 && cat .python-version\n\n"
        },
        {
            "id": "src-sql-example-1",
            "text": "\nsql-example-1\n\n\nsql\n\nSELECT\n    CONCAT(customer.last_name, ', ', customer.first_name) AS customer,\n    address.phone,\n    film.title\nFROM\n    rental\n    INNER JOIN customer ON rental.customer_id = customer.customer_id\n    INNER JOIN address ON customer.address_id = address.address_id\n    INNER JOIN inventory ON rental.inventory_id = inventory.inventory_id\n    INNER JOIN film ON inventory.film_id = film.film_id\nWHERE\n    rental.return_date IS NULL\n    AND rental_date < CURRENT_DATE\nORDER BY\n    title\nLIMIT 5;\n\n"
        },
        {
            "id": "src-elisp-example-1",
            "text": "\nelisp-example-1\n\n\nelisp\n\n(run-python)\n\n"
        },
        {
            "id": "src-elisp-example-2",
            "text": "\nelisp-example-2\n\n\nelisp\n\n(emacs-version)\n\n"
        },
        {
            "id": "src-python-example-1",
            "text": "\npython-example-1\n\n\npython\n\nprint(\"TODO: finish this part.\")\n\n"
        }
    ]
}