{
    "name": "table",
    "data": [
        {
            "id": "pyber-city-type-analysis",
            "text": "PyBer City Type Analysis"
        },
        {
            "id": "overview",
            "text": "Overview"
        },
        {
            "id": "results",
            "text": "Results"
        },
        {
            "id": "where-to-start-best-fare-price-for-urban-cities",
            "text": "Where to start? Best Fare Price for Urban cities."
        },
        {
            "id": "from-urban-to-rural-or-to-other-cities",
            "text": "From Urban to Rural or to other cities?"
        },
        {
            "id": "when-is-best-to-move-the-drivers",
            "text": "When is best to move the Drivers?"
        },
        {
            "id": "summary",
            "text": "Summary"
        },
        {
            "id": "closing-thoughts",
            "text": "Closing Thoughts"
        }
    ]
}